Configuring case-insensitive-1.2.0.11...
Preprocessing library for case-insensitive-1.2.0.11..
Building library for case-insensitive-1.2.0.11..
[1 of 3] Compiling Data.CaseInsensitive.Internal ( Data\CaseInsensitive\Internal.hs, .stack-work\dist\e626a42b\build\Data\CaseInsensitive\Internal.o )
[2 of 3] Compiling Data.CaseInsensitive ( Data\CaseInsensitive.hs, .stack-work\dist\e626a42b\build\Data\CaseInsensitive.o )
[3 of 3] Compiling Data.CaseInsensitive.Unsafe ( Data\CaseInsensitive\Unsafe.hs, .stack-work\dist\e626a42b\build\Data\CaseInsensitive\Unsafe.o )
Installing library in C:\sr\snapshots\c0060183\lib\x86_64-windows-ghc-8.6.5\case-insensitive-1.2.0.11-GGYU9CY9cs88wywgwHVKC6
Registering library for case-insensitive-1.2.0.11..
