Configuring neat-interpolation-0.3.2.4...
Preprocessing library for neat-interpolation-0.3.2.4..
Building library for neat-interpolation-0.3.2.4..
[1 of 3] Compiling NeatInterpolation.Parsing ( library\NeatInterpolation\Parsing.hs, .stack-work\dist\e626a42b\build\NeatInterpolation\Parsing.o )
[2 of 3] Compiling NeatInterpolation.String ( library\NeatInterpolation\String.hs, .stack-work\dist\e626a42b\build\NeatInterpolation\String.o )
[3 of 3] Compiling NeatInterpolation ( library\NeatInterpolation.hs, .stack-work\dist\e626a42b\build\NeatInterpolation.o )
Installing library in C:\sr\snapshots\c0060183\lib\x86_64-windows-ghc-8.6.5\neat-interpolation-0.3.2.4-7xOSCHh3LfsK8aUs1cwTlY
Registering library for neat-interpolation-0.3.2.4..
